{
    "name": "Cloud platform news",
    "language": "en",
    "feeds": [
        {
            "name": "Google cloud platform Blog",
            "url": "https://cloudblog.withgoogle.com/products/gcp/rss/"
        },
        {
            "name": "AWS Blog",
            "url": "http://feeds.feedburner.com/AmazonWebServicesBlog"
        },
        {
            "name": "OVH Cloud Blog",
            "url": "https://www.ovh.com/blog/feed/"
        },
        {
            "name": "Microsoft Azure Blog",
            "url": "https://azurecomcdn.azureedge.net/fr-fr/blog/feed/"
        },
        {
            "name": "IBM Cloud Blog",
            "url": "https://www.ibm.com/cloud/blog/rss"
        }
    ]
}
